{
  "project_info": {
    "project_number": "450792831134",
    "firebase_url": "https://fir-test-8e498.firebaseio.com",
    "project_id": "fir-test-8e498",
    "storage_bucket": "fir-test-8e498.appspot.com"
  },
  "client": [
    {
      "client_info": {
        "mobilesdk_app_id": "1:450792831134:android:22d34aaab56bc06a35e38f",
        "android_client_info": {
          "package_name": "com.DreamProject.FirebaseTestProject"
        }
      },
      "oauth_client": [
        {
          "client_id": "450792831134-lmpenllhv0ht94i7chu7f1nrvb3llsb3.apps.googleusercontent.com",
          "client_type": 3
        }
      ],
      "api_key": [
        {
          "current_key": "AIzaSyDBcO1QnVKD2r6yrYYXNYZy3bX6iZspDjA"
        }
      ],
      "services": {
        "appinvite_service": {
          "other_platform_oauth_client": [
            {
              "client_id": "450792831134-lmpenllhv0ht94i7chu7f1nrvb3llsb3.apps.googleusercontent.com",
              "client_type": 3
            }
          ]
        }
      }
    }
  ],
  "configuration_version": "1"
}